"Date","Voltage 1","Voltage 2"
"2017-12-13 11:13:48","23688","927"
"2017-12-13 11:13:49","11726","21181"
"2017-12-13 11:13:50","8545","19442"
"2017-12-13 11:13:51","9848","30606"
"2017-12-13 11:13:52","9486","11671"
"2017-12-13 11:13:53","18183","10850"
"2017-12-13 11:13:54","25671","11358"
"2017-12-13 11:13:55","13353","18520"
"2017-12-13 11:13:56","14242","18267"
"2017-12-13 11:13:57","19526","7010"
